/Users/emil/IdeaProjects/WeatherComparatorApp/src/test/java/listeners/ScreenshotListener.java
/Users/emil/IdeaProjects/WeatherComparatorApp/src/test/java/tests/unit/MetricVarianceCalculatorTest.java
/Users/emil/IdeaProjects/WeatherComparatorApp/src/test/java/tests/unit/AccuWeatherUITest.java
/Users/emil/IdeaProjects/WeatherComparatorApp/src/test/java/tests/it/WeatherComparisonIT.java
/Users/emil/IdeaProjects/WeatherComparatorApp/src/test/java/DataProviders/DataProviders.java
/Users/emil/IdeaProjects/WeatherComparatorApp/src/test/java/tests/unit/GETCityWeatherApiTest.java
